…
Data for Figure 1C come from the Japanese National Institute of Infectious Diseases, and a cleaned version of the data (japan_clean) was provided by the authors:

japan_clean

## # A tibble: 161 x 4
##       id age   sex    date      
##    <dbl> <chr> <chr>  <date>    
##  1   161 60    female 2020-02-25
##  2   160 50    male   2020-02-25
##  3   159 60    female 2020-02-25
##  4   158 60    male   2020-02-25
##  5   157 50    female 2020-02-24
##  6   156 30    male   2020-02-24
##  7   155 50    male   2020-02-24
##  8   154 40    male   2020-02-24
##  9   153 50    male   2020-02-24
## 10   152 50    male   2020-02-24
## # ... with 151 more rows
…
